0.3 2.16323 30117 0
0.31 2.16975 31086 0
0.32 2.17826 32132 0
0.33 2.18685 33401 0
0.34 2.19539 34372 0
0.35 2.20478 35389 0
0.36 2.21272 36150 0
0.37 2.22153 37114 0
0.38 2.22965 38110 0
0.39 2.2351 38733 0
0.4 2.24599 39730 0
0.41 2.25613 40764 0
0.42 2.26844 41958 0
0.43 2.27873 42984 0
0.44 2.29104 43991 0
0.45 2.30821 45384 0
0.46 2.3215 46408 0
0.47 2.33346 47397 0
0.48 2.33975 48026 0
0.49 2.35369 49069 0
0.5 2.36998 50135 0
0.51 2.38509 51095 0
0.52 2.40122 52084 0
0.53 2.41094 53071 0
0.54 2.42903 54083 0
0.55 2.45238 55073 0
0.56 2.46911 56030 0
0.57 2.48579 56979 0
0.58 2.50687 58342 0
0.59 2.52582 59351 0
0.6 2.53652 60007 0
0.61 2.55762 61011 0
0.62 2.57995 61993 0
0.63 2.59913 62935 0
0.64 2.62566 63976 0
0.65 2.67142 64810 0
0.66 2.69636 65763 0
0.67 2.72708 66803 0
0.68 2.76861 68214 0
0.69 2.8095 69274 0
0.7 2.83206 70078 0
0.71 2.86743 71033 0
0.72 2.91746 72005 0
0.73 2.9638 73032 0
0.74 3.02559 73930 0
0.75 3.0795 74946 0
0.76 3.13221 75941 0
0.77 3.20243 77039 0
0.78 3.27324 77993 0
0.79 3.26332 78844 0
0.8 3.34437 79857 0
0.81 3.43686 80793 0
0.82 3.52457 81808 0
0.83 3.6939 83219 0
0.84 3.81775 84230 0
0.85 3.91503 84923 0
0.86 4.07742 85920 0
0.87 4.40408 86983 0
0.88 4.66786 88064 0
0.89 4.79831 89066 0
0.9 5.13422 90024 0
0.91 5.74565 91180 0
0.92 6.33642 92234 0
0.93 6.58984 93146 0
0.94 7.44642 94040 0
0.95 8.58625 94971 0
0.96 10.9343 96351 0
0.97 14.9276 97337 0
0.98 16.6536 97568 0
0.99 27.915 99005 0
1 106.055 99747 0
