0.1 2.04005 9764 0
0.2 2.09339 19638 0
0.3 2.16269 29713 0
0.4 2.25203 39808 0
0.45 2.30527 44751 0
0.49 2.35476 48841 0
0.53 2.41221 52731 0
0.57 2.47754 56764 0
0.61 2.56275 60725 0
0.65 2.66547 64714 0
0.69 2.79612 68736 0
0.73 2.95478 72732 0
0.77 3.17757 76798 0
0.81 3.48297 80757 0
0.82 3.58084 81739 0
0.83 3.69199 82781 0
0.84 3.81083 83750 0
0.85 3.95703 84726 0
0.86 4.11308 85695 0
0.87 4.29381 86719 0
0.88 4.5152 87766 0
0.89 4.7816 88796 0
0.9 5.13964 89819 0
0.91 5.50464 90835 0
0.92 5.99018 91861 0
0.93 6.60707 92849 0
0.94 7.34826 93823 0
0.95 8.38827 94864 0
0.96 9.65546 95771 0
0.97 11.7767 96720 0
0.98 15.3022 97650 0
0.99 22.7037 98602 0
1 44.4904 99528 0
