0.1 2.04081 9900 0
0.2 2.09733 20015 0
0.3 2.17338 29911 0
0.4 2.27236 39918 0
0.45 2.34489 44896 0
0.49 2.41023 48924 0
0.53 2.49589 52953 0
0.57 2.59803 57019 0
0.61 2.7376 60950 0
0.65 2.90031 65021 0
0.69 3.15323 69094 0
0.73 3.4967 73081 0
0.77 4.22346 77048 0
0.81 5.96006 80967 0
0.82 6.8417 81941 0
0.83 8.56754 82947 0
0.84 11.1204 83947 0
0.85 18.7841 84862 0
0.86 144.393 85426 0
0.87 259.132 85982 0
0.88 370.388 86553 0
0.89 489.512 87087 0
0.9 604.417 87457 504
0.91 679.921 87850 1114
0.92 735.926 88242 1740
0.93 777.557 88665 2312
0.94 805.315 89011 2935
0.95 825.891 89389 3558
0.96 843.416 89690 4218
0.97 855.396 90134 4752
0.98 869.228 90458 5434
0.99 881.358 90803 6112
1 896.163 91098 6733
