0.1 2.07344 14882 0
0.2 2.17546 29848 0
0.3 2.32487 44990 0
0.4 2.51345 59895 0
0.45 2.63216 67372 0
0.49 2.74486 73352 0
0.53 2.88283 79340 0
0.57 3.03415 85367 0
0.61 3.22332 91466 0
0.65 3.44916 97430 0
0.69 3.73469 103395 0
0.73 4.10255 109468 0
0.77 4.58686 115376 0
0.81 5.30562 121388 0
0.82 5.49919 122914 0
0.83 5.74168 124346 0
0.84 6.04668 125856 0
0.85 6.3857 127373 0
0.86 6.73975 128873 0
0.87 7.14504 130296 0
0.88 7.65685 131789 0
0.89 8.20107 133254 0
0.9 8.9151 134767 0
0.91 10.0568 136322 0
0.92 11.1706 137853 0
0.93 12.5285 139320 0
0.94 14.6477 140857 0
0.95 17.1799 142326 0
0.96 21.1352 143846 0
0.97 28.2795 145398 0
0.98 40.9096 146831 0
0.99 72.5093 148201 0
1 175.843 149296 0
